In file included from ../../../../../../taller2/lista_tests.cpp:2:0:
./Lista.h: In constructor ‘Lista::Nodo::Nodo(const int&)’:
./Lista.h:97:13: warning: ‘Lista::Nodo::valor’ will be initialized after [-Wreorder]
         int valor;
             ^~~~~
./Lista.h:96:15: warning:   ‘Lista::Nodo* Lista::Nodo::anterior’ [-Wreorder]
         Nodo* anterior;
               ^~~~~~~~
In file included from ./Lista.h:107:0,
                 from ../../../../../../taller2/lista_tests.cpp:2:
./Lista.hpp:3:1: warning:   when initialized here [-Wreorder]
 Lista::Nodo::Nodo(const int &elem):valor(elem),anterior(NULL),siguiente(NULL){}
 ^~~~~
./Lista.hpp: In member function ‘void Lista::eliminar(Nat)’:
./Lista.hpp:145:16: warning: comparison between signed and unsigned integer expressions [-Wsign-compare]
     }else if (i==lenght-1)
               ~^~~~~~~~~~
./Lista.hpp:155:16: warning: comparison between signed and unsigned integer expressions [-Wsign-compare]
         while(n<i && temporal!=NULL){
               ~^~
./Lista.hpp:158:18: warning: comparison between signed and unsigned integer expressions [-Wsign-compare]
             if (n==i){
                 ~^~~
./Lista.hpp: In member function ‘const int& Lista::iesimo(Nat) const’:
./Lista.hpp:192:12: warning: comparison between signed and unsigned integer expressions [-Wsign-compare]
     while(i!=n)
           ~^~~
./Lista.hpp: In member function ‘int& Lista::iesimo(Nat)’:
./Lista.hpp:204:15: warning: comparison between signed and unsigned integer expressions [-Wsign-compare]
     while(cont!=i)
           ~~~~^~~
